Flow report for Average
Tue Aug 09 15:58:44 2016
Quartus II Version 10.1 Build 197 01/19/2011 Service Pack 1 SJ Web Edition


---------------------
; Table of Contents ;
---------------------
  1. Legal Notice
  2. Flow Summary
  3. Flow Settings
  4. Flow Non-Default Global Settings
  5. Flow Elapsed Time
  6. Flow OS Summary
  7. Flow Log



----------------
; Legal Notice ;
----------------
Copyright (C) 1991-2011 Altera Corporation
Your use of Altera Corporation's design tools, logic functions 
and other software and tools, and its AMPP partner logic 
functions, and any output files from any of the foregoing 
(including device programming or simulation files), and any 
associated documentation or information are expressly subject 
to the terms and conditions of the Altera Program License 
Subscription Agreement, Altera MegaCore Function License 
Agreement, or other applicable license agreement, including, 
without limitation, that your use is for the sole purpose of 
programming logic devices manufactured by Altera and sold by 
Altera or its authorized distributors.  Please refer to the 
applicable agreement for further details.



+------------------------------------------------------------------------------------+
; Flow Summary                                                                       ;
+------------------------------------+-----------------------------------------------+
; Flow Status                        ; Successful - Tue Aug 09 15:58:40 2016         ;
; Quartus II Version                 ; 10.1 Build 197 01/19/2011 SP 1 SJ Web Edition ;
; Revision Name                      ; Average                                       ;
; Top-level Entity Name              ; average                                       ;
; Family                             ; Cyclone IV GX                                 ;
; Total logic elements               ; 9 / 21,280 ( < 1 % )                          ;
;     Total combinational functions  ; 7 / 21,280 ( < 1 % )                          ;
;     Dedicated logic registers      ; 7 / 21,280 ( < 1 % )                          ;
; Total registers                    ; 0                                             ;
; Total pins                         ; 100 / 167 ( 60 % )                            ;
; Total virtual pins                 ; 0                                             ;
; Total memory bits                  ; 0 / 774,144 ( 0 % )                           ;
; Embedded Multiplier 9-bit elements ; 0 / 80 ( 0 % )                                ;
; Total GXB Receiver Channel PCS     ; 0 / 4 ( 0 % )                                 ;
; Total GXB Receiver Channel PMA     ; 0 / 4 ( 0 % )                                 ;
; Total GXB Transmitter Channel PCS  ; 0 / 4 ( 0 % )                                 ;
; Total GXB Transmitter Channel PMA  ; 0 / 4 ( 0 % )                                 ;
; Total PLLs                         ; 0 / 4 ( 0 % )                                 ;
; Device                             ; EP4CGX22CF19C6                                ;
; Timing Models                      ; Preliminary                                   ;
+------------------------------------+-----------------------------------------------+


+-----------------------------------------+
; Flow Settings                           ;
+-------------------+---------------------+
; Option            ; Setting             ;
+-------------------+---------------------+
; Start date & time ; 08/09/2016 15:58:16 ;
; Main task         ; Compilation         ;
; Revision Name     ; Average             ;
+-------------------+---------------------+


+-----------------------------------------------------------------------------------------------------------------+
; Flow Non-Default Global Settings                                                                                ;
+-------------------------------------+--------------------------------+---------------+-------------+------------+
; Assignment Name                     ; Value                          ; Default Value ; Entity Name ; Section Id ;
+-------------------------------------+--------------------------------+---------------+-------------+------------+
; COMPILER_SIGNATURE_ID               ; 33764836967551.147075109510484 ; --            ; --          ; --         ;
; PARTITION_COLOR                     ; 16764057                       ; --            ; average     ; Top        ;
; PARTITION_FITTER_PRESERVATION_LEVEL ; PLACEMENT_AND_ROUTING          ; --            ; average     ; Top        ;
; PARTITION_NETLIST_TYPE              ; SOURCE                         ; --            ; average     ; Top        ;
+-------------------------------------+--------------------------------+---------------+-------------+------------+


+-------------------------------------------------------------------------------------------------------------------------------+
; Flow Elapsed Time                                                                                                             ;
+---------------------------+--------------+-------------------------+---------------------+------------------------------------+
; Module Name               ; Elapsed Time ; Average Processors Used ; Peak Virtual Memory ; Total CPU Time (on all processors) ;
+---------------------------+--------------+-------------------------+---------------------+------------------------------------+
; Analysis & Synthesis      ; 00:00:05     ; 1.0                     ; 327 MB              ; 00:00:03                           ;
; Fitter                    ; 00:00:11     ; 1.3                     ; 462 MB              ; 00:00:09                           ;
; Assembler                 ; 00:00:03     ; 1.0                     ; 330 MB              ; 00:00:03                           ;
; TimeQuest Timing Analyzer ; 00:00:05     ; 1.0                     ; 316 MB              ; 00:00:04                           ;
; Total                     ; 00:00:24     ; --                      ; --                  ; 00:00:19                           ;
+---------------------------+--------------+-------------------------+---------------------+------------------------------------+


+----------------------------------------------------------------------------------------+
; Flow OS Summary                                                                        ;
+---------------------------+------------------+-----------+------------+----------------+
; Module Name               ; Machine Hostname ; OS Name   ; OS Version ; Processor type ;
+---------------------------+------------------+-----------+------------+----------------+
; Analysis & Synthesis      ; DESKTOP-N6R3BEE  ; Windows 7 ; 6.2        ; x86_64         ;
; Fitter                    ; DESKTOP-N6R3BEE  ; Windows 7 ; 6.2        ; x86_64         ;
; Assembler                 ; DESKTOP-N6R3BEE  ; Windows 7 ; 6.2        ; x86_64         ;
; TimeQuest Timing Analyzer ; DESKTOP-N6R3BEE  ; Windows 7 ; 6.2        ; x86_64         ;
+---------------------------+------------------+-----------+------------+----------------+


------------
; Flow Log ;
------------
quartus_map --read_settings_files=on --write_settings_files=off Average -c Average
quartus_fit --read_settings_files=off --write_settings_files=off Average -c Average
quartus_asm --read_settings_files=off --write_settings_files=off Average -c Average
quartus_sta Average -c Average



